%YAML 1.1
%TAG !u! tag:unity3d.com,2011:
--- !u!114 &11400000
MonoBehaviour:
  m_ObjectHideFlags: 0
  m_CorrespondingSourceObject: {fileID: 0}
  m_PrefabInstance: {fileID: 0}
  m_PrefabAsset: {fileID: 0}
  m_GameObject: {fileID: 0}
  m_Enabled: 1
  m_EditorHideFlags: 0
  m_Script: {fileID: 11500000, guid: b0284ef203d04512800e0cbad0a5998d, type: 3}
  m_Name: CharacterSO
  m_EditorClassIdentifier: 
  PlayerCharacters:
  - {fileID: 6457315220524218836, guid: 4adcd4105db3b4543ba66ec373be0ecc, type: 3}
  EnemyCharacters:
  - {fileID: -6547089637532704949, guid: 660a94cac8b419747814ed87b2899645, type: 3}
